{
  "MS Dhoni": [
    {
      "2008": 129
    },
    {
      "2009": 122
    },
    {
      "2010": 133
    },
    {
      "2011": 158
    },
    {
      "2012": 126
    },
    {
      "2013": 154
    },
    {
      "2014": 143
    },
    {
      "2015": 120
    },
    {
      "2016": 129
    },
    {
      "2017": 111
    }
  ]
}